{"docs":[{"url":"\/tag\/control\/block-cyberpunk-takeover","indexed":false,"dateModified":"2020-11-30T09:40:32Z","dateCreated":"2020-11-30T09:40:32Z","site":"pcgamer","type":"control","slug":"block-cyberpunk-takeover","name":"block-cyberpunk-takeover","id":"bJ8SygSjKe8nQ698Jum356"},{"indexed":false,"dateModified":"2020-10-08T11:33:11Z","dateCreated":"2020-10-08T09:22:33Z","site":"pcgamer","type":"control","url":"\/tag\/control\/van-banner-image-hero","slug":"van-banner-hero-image","name":"van-banner-hero-image","id":"vg9c8pFGvG2F8U6X8FuZGe"},{"url":"\/tag\/control\/van-style-orange1","indexed":false,"dateModified":"2020-10-08T09:22:51Z","dateCreated":"2020-10-08T09:22:51Z","site":"pcgamer","type":"control","slug":"van-style-orange1","name":"van-style-orange1","id":"jHEWaDZkHpGdKad4WTpdFg"},{"indexed":false,"dateModified":"2019-11-21T16:41:18Z","dateCreated":"2019-11-21T16:41:18Z","site":"pcgamer","type":"control","url":"\/tag\/control\/article-sp-curated","slug":"article-sp-curated","name":"article-sp-curated","id":"rpaZBkSPpt9hBUm2vyKPpb"},{"indexed":false,"dateModified":"2019-11-21T16:39:48Z","dateCreated":"2019-11-21T16:39:48Z","site":"pcgamer","type":"control","url":"\/tag\/control\/van-exclude-latest","slug":"van-exclude-latest","name":"van-exclude-latest","id":"AvVM8XF8rDzsdPzkYss6HS"},{"indexed":false,"dateModified":"2019-11-21T16:38:17Z","dateCreated":"2019-11-21T16:38:17Z","site":"pcgamer","type":"control","url":"\/tag\/control\/exclude-from-homepage","slug":"exclude-from-homepage","name":"exclude-from-homepage","id":"yH7sXekbFb9z7cAhRvtuaG"},{"indexed":false,"dateModified":"2019-11-21T16:35:06Z","dateCreated":"2019-11-21T16:35:06Z","site":"pcgamer","type":"control","url":"\/tag\/control\/van-ads-none","slug":"van-ads-none","name":"van-ads-none","id":"nBKbBeKZMHappnpnTZ5Gsh"},{"indexed":false,"dateModified":"2019-11-21T16:33:25Z","dateCreated":"2019-11-21T16:33:25Z","site":"pcgamer","type":"control","url":"\/tag\/control\/van-block-sticky-video","slug":"van-block-sticky-video","name":"van-block-sticky-video","id":"pmPZCe9B2Xg4PjQPznMkCX"},{"indexed":false,"dateModified":"2019-11-21T16:30:45Z","dateCreated":"2019-11-21T16:30:45Z","site":"pcgamer","type":"control","url":"\/tag\/control\/van-block-taboola","slug":"van-block-taboola","name":"van-block-taboola","id":"3eWvtD2d4mJEiwvpX5mmCE"},{"indexed":false,"dateModified":"2019-10-08T10:22:42Z","dateCreated":"2019-10-08T10:22:42Z","site":"pcgamer","type":"control","url":"\/tag\/control\/activisionoct2019-carousel","slug":"activisionoct2019-carousel","name":"ActivisionOct2019-Carousel","id":"Hyy3QX9BVZqHsyLuSTbNeT"},{"indexed":false,"dateModified":"2019-10-07T11:14:54Z","dateCreated":"2019-10-07T11:14:54Z","site":"pcgamer","type":"control","url":"\/tag\/control\/activisionoct2019","slug":"activisionoct2019","name":"ActivisionOct2019","id":"Tc4A7w9zbGWPd3Vr6w3DSZ"},{"indexed":false,"dateModified":"2019-07-11T09:14:39Z","dateCreated":"2019-07-11T09:14:39Z","url":"\/tag\/control\/van-header-black-friday-yellow","site":"pcgamer","type":"control","slug":"van-header-black-friday-yellow","name":"van_header_black_friday_yellow","id":"uMtUX6kMWH7b2YuH8v2t8G"},{"indexed":false,"dateModified":"2019-07-08T09:48:10Z","dateCreated":"2019-07-08T09:48:10Z","url":"\/tag\/control\/van-secure-dsb-widget","site":"pcgamer","type":"control","slug":"van-secure-dsb-widget","name":"van-secure-dsb-widget","id":"uK94ZYcAy2LTGWkxkkusdQ"},{"url":"\/tag\/control\/buying-guide","site":"pcgamer","indexed":false,"dateModified":"2019-01-17T10:32:43Z","dateCreated":"2019-01-17T10:32:11Z","type":"control","slug":"buying-guide","name":"buying guide","id":"m5bmekB6C9d3dRrrLPjNm8"},{"url":"\/tag\/control\/van_no_sticky_nav","site":"pcgamer","indexed":false,"dateModified":"2018-11-29T11:16:26Z","dateCreated":"2018-11-29T11:16:26Z","type":"control","slug":"van_no_sticky_nav","name":"van_no_sticky_nav","id":"AgyuDDgtKRhGaXKgkC7DfB"},{"url":"\/tag\/control\/van_sticky_side_nav","site":"pcgamer","indexed":false,"dateModified":"2018-11-29T11:16:11Z","dateCreated":"2018-11-29T11:16:11Z","type":"control","slug":"van_sticky_side_nav","name":"van_sticky_side_nav","id":"KERZsyK7D6gdKpPYJurF8A"},{"url":"\/tag\/control\/van_header_black_friday_blue","site":"pcgamer","indexed":false,"dateModified":"2018-11-14T11:39:43Z","dateCreated":"2018-11-14T11:39:43Z","type":"control","slug":"van_header_black_friday_blue","name":"van_header_black_friday_blue","id":"mX4eKKKWzv3t4U5pJG4ccn"},{"url":"\/tag\/control\/van_disable_sidebar","site":"pcgamer","indexed":false,"dateModified":"2018-11-12T16:10:26Z","dateCreated":"2018-11-12T16:10:26Z","type":"control","slug":"van_disable_sidebar","name":"van_disable_sidebar","id":"8yFvNMA5CBzEWjxNk75vJP"},{"url":"\/tag\/control\/van_header_black_friday_pcg","site":"pcgamer","indexed":false,"dateModified":"2018-11-12T16:04:12Z","dateCreated":"2018-11-12T16:04:12Z","type":"control","slug":"van_header_black_friday_pcg","name":"van_header_black_friday_pcg","id":"CK9suPYMjvirJ6g2KWHFCV"},{"url":"\/tag\/control\/van-header-black-friday","site":"pcgamer","indexed":false,"dateModified":"2018-11-12T15:55:38Z","dateCreated":"2018-11-12T15:55:38Z","type":"control","slug":"van-header-black-friday","name":"van-header-black-friday","id":"dP5EaXVzVDUfuYLBkH2sFL"},{"url":"\/pc-powerplay","site":"pcgamer","meta":{"description":["PC Powerplay"],"title":[""]},"indexed":true,"dateModified":"2018-09-12T15:38:18Z","dateCreated":"2018-09-12T15:38:18Z","type":"source","slug":"pc-powerplay","name":"PC PowerPlay","id":"UkcPQdxbS8UzyEcyNw4xkh"},{"url":"\/tag\/control\/blizzard-bfa","site":"pcgamer","indexed":false,"dateModified":"2018-08-07T11:33:23Z","dateCreated":"2018-08-03T14:40:03Z","type":"control","slug":"blizzard-bfa","name":"blizzard-bfa","id":"jKAnwMovYNDe5o922Up6t6"},{"url":"\/tag\/control\/rend-frostkeep-channel","site":"pcgamer","indexed":false,"dateModified":"2018-07-19T21:27:29Z","dateCreated":"2018-07-19T21:27:29Z","type":"control","slug":"rend-frostkeep-channel","name":"rend-frostkeep-channel","id":"NSAQKEWNYcT3zn3vfnCeaS"},{"url":"\/tag\/control\/tag-page-content","site":"pcgamer","indexed":false,"dateModified":"2018-05-23T13:13:23.142Z","dateCreated":"2018-05-23T13:13:23.142Z","type":"control","slug":"tag-page-content","name":"tag page content","id":"mHA9bM3MW9knxEL9VhaJH5"},{"url":"\/tag\/epic-games","dateModified":"2018-05-23T13:08:40.142Z","dateCreated":"2018-05-23T13:08:40.142Z","site":"pcgamer","id":"EoFVrLdcHiLB2xr3bq5TkL","indexed":false,"type":"freeform","slug":"epic-games","name":"epic games"},{"url":"\/tag\/sponsored","site":"pcgamer","indexed":false,"dateModified":"2017-11-22T17:00:44.325Z","dateCreated":"2017-11-22T17:00:44.325Z","type":"freeform","slug":"sponsored","name":"Sponsored","id":"4eiropPUBHDeGNLMJ6iSsY"},{"url":"\/tag\/control\/sponsored-article","site":"pcgamer","indexed":false,"dateModified":"2017-06-14T09:25:45.164Z","dateCreated":"2017-06-01T12:01:32.151Z","type":"control","slug":"sponsored-article","name":"sponsored-article","id":"Y2wLQ8fgs5nzfZv6ctbiU4"},{"url":"\/tag\/control\/sponsorbrand-kotaku","site":"pcgamer","indexed":false,"dateModified":"2017-06-09T10:11:15.159Z","dateCreated":"2017-06-08T15:07:48.158Z","type":"control","slug":"sponsorbrand-kotaku","name":"sponsorbrand-kotaku","id":"LBwg4XaYAb9haAuhdjSsgC"},{"url":"\/tag\/e2ewidget","site":"pcgamer","indexed":false,"dateModified":"2017-05-03T15:02:22.122Z","dateCreated":"2017-05-03T15:02:22.122Z","type":"freeform","slug":"e2ewidget","name":"E2EWidget","id":"Z93sHpTCFEP6p7NbkFt3GR"},{"url":"\/tag\/test","dateModified":"2017-04-28T09:05:35.117Z","dateCreated":"2017-04-28T09:05:35.117Z","site":"pcgamer","id":"2q4kjuyS9aEfwjhjFWQVFg","indexed":false,"type":"freeform","slug":"test","name":"test"},{"url":"\/tag\/control\/no-club","site":"pcgamer","indexed":false,"dateModified":"2017-04-21T10:37:35.11Z","dateCreated":"2017-04-21T10:37:35.11Z","type":"control","slug":"no-club","name":"no-club","id":"oNgx7L47nDAwgSq2XD27JS"},{"url":"\/tag\/control\/no-index","site":"pcgamer","indexed":false,"dateModified":"2016-11-11T11:53:04.315Z","dateCreated":"2016-11-11T11:53:04.315Z","type":"control","slug":"no-index","name":"no-index","id":"ZypgPSYJ85fQxcKND6ErQL"},{"url":"\/tag\/freak","site":"pcgamer","meta":{"canonical":["\/freak\/test"],"description":["test"],"title":["test"]},"indexed":true,"dateModified":"2016-08-23T11:24:53.235Z","dateCreated":"2016-05-10T15:36:14.13Z","type":"freeform","slug":"freak","name":"freak","id":"Eu2CZMmoVSLo6QtwJuZLPk"},{"url":"\/tag\/genre\/still-a-test","site":"pcgamer","meta":{"canonical":["\/still-a-test"],"description":["test description"],"title":["test title"]},"indexed":true,"dateModified":"2016-08-01T15:49:20.213Z","dateCreated":"2016-05-10T14:04:26.13Z","type":"genre","slug":"still-a-test","name":"still a test","id":"RKnia5693K6Sh4McwEi8r6"},{"url":"\/tag\/black-friday","site":"pcgamer","meta":{"canonical":["\/blackfriday"],"description":["Deals on black Friday"],"title":["Black Friday deals"]},"indexed":true,"dateModified":"2016-08-01T15:20:49.213Z","dateCreated":"2016-05-17T11:24:48.137Z","type":"freeform","slug":"black-friday","name":"Black Friday","id":"kQcVv3GNXChXZyYy5D9Dvm"},{"url":"\/tag\/control\/hw-carousel-slot-3","site":"pcgamer","indexed":false,"dateModified":"2016-05-17T09:48:58.137Z","dateCreated":"2016-05-17T09:48:58.137Z","type":"control","slug":"hw-carousel-slot-3","name":"hw_carousel_slot_3","id":"CBpzoMNPZjnGXreUG2tTHU"},{"url":"\/tag\/control\/hw-carousel-slot-2","site":"pcgamer","indexed":false,"dateModified":"2016-05-17T09:48:54.137Z","dateCreated":"2016-05-17T09:48:54.137Z","type":"control","slug":"hw-carousel-slot-2","name":"hw_carousel_slot_2","id":"vxgkCrQNPJUt4ueS5uPUuT"},{"url":"\/tag\/control\/hw-carousel-slot-1","site":"pcgamer","indexed":false,"dateModified":"2016-05-17T09:48:51.137Z","dateCreated":"2016-05-17T09:48:51.137Z","type":"control","slug":"hw-carousel-slot-1","name":"hw_carousel_slot_1","id":"AiBwuGrV6WjxeXtrCscVWT"},{"url":"\/tag\/control\/pro-carousel-slot-3","site":"pcgamer","indexed":false,"dateModified":"2016-05-17T09:48:35.137Z","dateCreated":"2016-05-17T09:48:35.137Z","type":"control","slug":"pro-carousel-slot-3","name":"pro_carousel_slot_3","id":"Roxf2T9wzmV63Lt2nUKrrR"},{"url":"\/tag\/control\/pro-carousel-slot-2","site":"pcgamer","indexed":false,"dateModified":"2016-05-17T09:48:31.137Z","dateCreated":"2016-05-17T09:48:31.137Z","type":"control","slug":"pro-carousel-slot-2","name":"pro_carousel_slot_2","id":"kDyTb6obStWqPezachZgQR"}],"numFound":169,"facet":[],"links":{"next":"?cursor=AoJx4ryH39QCPwQxKnRhZyp0YWcqa0R5VGI2b2JTdFdxUGV6YWNoWmdRUio1NA%3D%3D","cursor":"AoJx4ryH39QCPwQxKnRhZyp0YWcqa0R5VGI2b2JTdFdxUGV6YWNoWmdRUio1NA=="},"debug":{"args":{"site":"pcgamer"},"params":{"rows":"40","page":null,"cursor":null,"name":null,"id":null,"slug":null,"type":["genre","freeform","control","source","genre","freeform","control","source"],"articleId":null,"autosuggest":null,"site":"pcgamer"},"$_REQUEST":{"type":["genre","freeform","control","source","genre","freeform","control","source"],"rows":"40"},"$request":{"attributes":{},"request":{},"query":{},"server":{},"files":{},"cookies":{},"headers":{}}}}